32:32:80:80:W,  115:32:80:80:Y,  198:32:80:80:W,  281:32:80:80:Y,  364:32:80:80:W,  447:32:80:80:W,
32:115:80:80:W, 115:115:80:80:W, 198:115:80:80:W, 281:115:80:80:W, 364:115:80:80:W, 447:115:80:80:W,
32:198:80:80:Y, 115:198:80:80:W, 198:198:80:80:D, 281:198:80:80:D, 364:198:80:80:W, 447:198:80:80:Y,
32:281:80:80:W, 115:281:80:80:W, 198:281:80:80:W, 281:281:80:80:W, 364:281:80:80:W, 447:281:80:80:W,
32:364:80:80:W, 115:364:80:80:W, 198:364:80:80:Y, 281:364:80:80:W, 364:364:80:80:Y, 447:364:80:80:W,