45:45:157:157:W11,  207:45:157:157:W21, 369:45:157:157:W31,  531:45:157:157:Y,    693:45:157:157:W51,
45:207:157:157:W12, 207:207:157:157:Y,  369:207:157:157:W32, 531:207:157:157:Y,   693:207:157:157:W52,
45:369:157:157:W13, 207:369:157:157:Y,  369:369:157:157:W33, 531:369:157:157:Y,   693:369:157:157:W53,
45:531:157:157:W14, 207:531:157:157:Y,  369:531:157:157:W34, 531:531:157:157:W44, 693:531:157:157:W54,
