45:45:157:157:W,  207:45:157:157:M,  369:45:157:157:W,  531:45:157:157:W,  693:45:157:157:G,  855:45:157:157:W,  1017:45:157:157:W
45:207:157:157:W, 207:207:157:157:W, 369:207:157:157:W, 531:207:157:157:W, 693:207:157:157:W, 855:207:157:157:W, 1017:207:157:157:M
45:369:157:157:D, 207:369:157:157:W, 369:369:157:157:O, 531:369:157:157:O, 693:369:157:157:W, 855:369:157:157:W, 1017:369:157:157:W
45:531:157:157:W, 207:531:157:157:W, 369:531:157:157:W, 531:531:157:157:W, 693:531:157:157:W, 855:531:157:157:W, 1017:531:157:157:M
45:693:157:157:W, 207:693:157:157:M, 369:693:157:157:W, 531:693:157:157:W, 693:693:157:157:G, 855:693:157:157:W, 1017:693:157:157:W
