44:44:157:157:D,   206:44:157:157:D,   368:44:157:157:D,   530:44:157:157:W,   692:44:157:157:W,   854:44:157:157:D,   1016:44:157:157:D,   1178:44:157:157:D,
44:206:157:157:D,  206:206:157:157:D,  368:206:157:157:W,  530:206:157:157:W,  692:206:157:157:W,  854:206:157:157:Y,  1016:206:157:157:D,  1178:206:157:157:D,
44:368:157:157:D,  206:368:157:157:W,  368:368:157:157:W,  530:368:157:157:Y,  692:368:157:157:W,  854:368:157:157:W,  1016:368:157:157:Y,  1178:368:157:157:D,
44:530:157:157:W,  206:530:157:157:W,  368:530:157:157:Y,  530:530:157:157:W,  692:530:157:157:W,  854:530:157:157:W,  1016:530:157:157:W,  1178:530:157:157:W,
44:692:157:157:W,  206:692:157:157:W,  368:692:157:157:W,  530:692:157:157:W,  692:692:157:157:W,  854:692:157:157:Y,  1016:692:157:157:W,  1178:692:157:157:W,
44:854:157:157:D,  206:854:157:157:Y,  368:854:157:157:W,  530:854:157:157:W,  692:854:157:157:Y,  854:854:157:157:W,  1016:854:157:157:W,  1178:854:157:157:D,
44:1016:157:157:D, 206:1016:157:157:D, 368:1016:157:157:Y, 530:1016:157:157:W, 692:1016:157:157:W, 854:1016:157:157:W, 1016:1016:157:157:D, 1178:1016:157:157:D,
44:1178:157:157:D, 206:1178:157:157:D, 368:1178:157:157:D, 530:1178:157:157:W, 692:1178:157:157:W, 854:1178:157:157:D, 1016:1178:157:157:D, 1178:1178:157:157:D,