 64:64:157:157:D,   226:64:157:157:W2,   388:64:157:157:W1,  550:64:157:157:G1,   712:64:157:157:W1,   874:64:157:157:W2,   1036:64:157:157:D,
64:226:157:157:W3, 226:226:157:157:W4,  388:226:157:157:W3,  550:226:157:157:Y,   712:226:157:157:W3,  874:226:157:157:W4,  1036:226:157:157:W3,
64:388:157:157:W1, 226:388:157:157:Y1,  388:388:157:157:W1,  550:388:157:157:D,   712:388:157:157:W1,  874:388:157:157:Y1,  1036:388:157:157:W1,
64:550:157:157:B1, 226:550:157:157:W4,  388:550:157:157:W3,  550:550:157:157:Y,   712:550:157:157:W3,  874:550:157:157:W4,  1036:550:157:157:B1,
64:712:157:157:W1, 226:712:157:157:W2,  388:712:157:157:D,   550:712:157:157:W2,  712:712:157:157:D,   874:712:157:157:W2,  1036:712:157:157:W1,
64:874:157:157:W3, 226:874:157:157:Y1,  388:874:157:157:W3,  550:874:157:157:W4,  712:874:157:157:W3,  874:874:157:157:Y1,  1036:874:157:157:W3,
64:1036:157:157:D, 226:1036:157:157:W2, 388:1036:157:157:G1, 550:1036:157:157:B1, 712:1036:157:157:G1, 874:1036:157:157:W2, 1036:1036:157:157:D,
