34:34:80:80:W11,  117:34:80:80:W21,  200:34:80:80:Y,    283:34:80:80:W41,  366:34:80:80:D,    449:34:80:80:W61,  532:34:80:80:W71,  615:34:80:80:W81
34:117:80:80:W12, 117:117:80:80:W22, 200:117:80:80:W32, 283:117:80:80:W42, 366:117:80:80:W52, 449:117:80:80:W62, 532:117:80:80:Y,   615:117:80:80:W82
34:200:80:80:Y,   117:200:80:80:W23, 200:200:80:80:D,   283:200:80:80:W43, 366:200:80:80:B,   449:200:80:80:W63, 532:200:80:80:W73, 615:200:80:80:W83
34:283:80:80:W14, 117:283:80:80:W24, 200:283:80:80:W34, 283:283:80:80:W44, 366:283:80:80:W54, 449:283:80:80:Y,   532:283:80:80:W74, 615:283:80:80:B
34:366:80:80:B,   117:366:80:80:W25, 200:366:80:80:Y,   283:366:80:80:W45, 366:366:80:80:W55, 449:366:80:80:W65, 532:366:80:80:W75, 615:366:80:80:W85
34:449:80:80:W16, 117:449:80:80:W26, 200:449:80:80:W36, 283:449:80:80:B,   366:449:80:80:W56, 449:449:80:80:D,   532:449:80:80:W76, 615:449:80:80:Y
34:532:80:80:W17, 117:532:80:80:Y,   200:532:80:80:W37, 283:532:80:80:W47, 366:532:80:80:W57, 449:532:80:80:W67, 532:532:80:80:W77, 615:532:80:80:W87
34:615:80:80:W18, 117:615:80:80:W28, 200:615:80:80:W38, 283:615:80:80:D,   366:615:80:80:W58, 449:615:80:80:Y,   532:615:80:80:W78, 615:615:80:80:W88
