5:5:157:157:W,   167:5:157:157:Y,   329:5:157:157:W,   491:5:157:157:W,   653:5:157:157:W,
5:167:157:157:W, 167:167:157:157:W, 329:167:157:157:W, 491:167:157:157:W, 653:167:157:157:W,
5:329:157:157:W, 167:329:157:157:W, 329:329:157:157:W, 491:329:157:157:W, 653:329:157:157:W,
5:491:157:157:W, 167:491:157:157:W, 329:491:157:157:W, 491:491:157:157:W, 653:491:157:157:W,
5:653:157:157:W, 167:653:157:157:W, 329:653:157:157:W, 491:653:157:157:Y, 653:653:157:157:W,