77:77:80:80:W,   160:77:80:80:Y2,  243:77:80:80:W,   326:77:80:80:Y1,  409:77:80:80:W,
77:160:80:80:Y1, 160:160:80:80:W,  243:160:80:80:Y2, 326:160:80:80:W,  409:160:80:80:Y2,
77:243:80:80:W,  160:243:80:80:Y1, 243:243:80:80:D,  326:243:80:80:Y1, 409:243:80:80:W,
77:326:80:80:Y2, 160:326:80:80:W,  243:326:80:80:Y2, 326:326:80:80:W,  409:326:80:80:Y1,
77:409:80:80:W,  160:409:80:80:Y1, 243:409:80:80:W,  326:409:80:80:Y2, 409:409:80:80:W,
