3:3:80:80:W,   86:3:80:80:W,   169:3:80:80:W,   252:3:80:80:W,   335:3:80:80:W,
3:86:80:80:W,  86:86:80:80:W,  169:86:80:80:W,  252:86:80:80:W,  335:86:80:80:W,
3:169:80:80:Y, 86:169:80:80:W, 169:169:80:80:W, 252:169:80:80:W, 335:169:80:80:Y,
3:252:80:80:W, 86:252:80:80:W, 169:252:80:80:W, 252:252:80:80:W, 335:252:80:80:W,
3:335:80:80:W, 86:335:80:80:W, 169:335:80:80:W, 252:335:80:80:W, 335:335:80:80:W,